<?xml version="1.0" encoding="UTF-8" standalone="no"?>
<svg
   xmlns:dc="http://purl.org/dc/elements/1.1/"
   xmlns:cc="http://creativecommons.org/ns#"
   xmlns:rdf="http://www.w3.org/1999/02/22-rdf-syntax-ns#"
   xmlns:svg="http://www.w3.org/2000/svg"
   xmlns="http://www.w3.org/2000/svg"
   xmlns:xlink="http://www.w3.org/1999/xlink"
   xmlns:sodipodi="http://sodipodi.sourceforge.net/DTD/sodipodi-0.dtd"
   xmlns:inkscape="http://www.inkscape.org/namespaces/inkscape"
   sodipodi:docname="basic-f13.svg"
   inkscape:version="1.0beta1 (a4ee55bc41, 2019-11-15)"
   sodipodi:version="0.32"
   id="svg2928"
   viewBox="0 0 300 57"
   height="57"
   width="300"
   version="1.1">
  <defs
     id="defs3">
    <radialGradient
       gradientUnits="userSpaceOnUse"
       gradientTransform="matrix(-1.069487,0,0,0.935027,431.92892,-2103.0661)"
       fy="2278.0271"
       fx="188.94781"
       r="19.567673"
       cy="2278.0271"
       cx="188.94781"
       id="radialGradient1670"
       xlink:href="#linearGradient841" />
    <radialGradient
       gradientUnits="userSpaceOnUse"
       gradientTransform="matrix(-1.070251,0,0,0.93436,431.81652,-2098.0771)"
       fy="2274.3147"
       fx="212.60384"
       r="18.493774"
       cy="2274.3147"
       cx="212.60384"
       id="radialGradient1669"
       xlink:href="#linearGradient841" />
    <radialGradient
       gradientUnits="userSpaceOnUse"
       gradientTransform="matrix(-1.045701,0,0,0.956296,451.86972,-2108.7331)"
       fy="2233.2886"
       fx="221.81415"
       r="12.484145"
       cy="2233.2886"
       cx="221.81415"
       id="radialGradient1668"
       xlink:href="#linearGradient841" />
    <radialGradient
       gradientUnits="userSpaceOnUse"
       gradientTransform="matrix(-1.040873,0,0,0.960732,463.70702,-2121.2581)"
       fy="2236.0139"
       fx="225.28719"
       r="12.167087"
       cy="2236.0139"
       cx="225.28719"
       id="radialGradient1667"
       xlink:href="#linearGradient841" />
    <radialGradient
       gradientUnits="userSpaceOnUse"
       gradientTransform="matrix(-1.065969,0,0,0.938114,430.34222,-2129.6921)"
       fy="2298.9153"
       fx="225.83769"
       r="7.2748404"
       cy="2298.9153"
       cx="225.83769"
       id="radialGradient1666"
       xlink:href="#linearGradient841" />
    <radialGradient
       gradientUnits="userSpaceOnUse"
       gradientTransform="matrix(-1.048503,0,0,0.953741,448.04802,-2135.0491)"
       fy="2266.865"
       fx="238.59247"
       r="7.9932241"
       cy="2266.865"
       cx="238.59247"
       id="radialGradient1665"
       xlink:href="#linearGradient841" />
    <radialGradient
       gradientUnits="userSpaceOnUse"
       gradientTransform="matrix(-1.034074,0,0,0.967049,469.27502,-2138.1911)"
       fy="2238.9172"
       fx="251.28577"
       r="5.5509334"
       cy="2238.9172"
       cx="251.28577"
       id="radialGradient1664"
       xlink:href="#linearGradient841" />
    <radialGradient
       gradientUnits="userSpaceOnUse"
       gradientTransform="matrix(1.069487,0,0,0.935027,21.961512,-2103.0661)"
       r="19.567673"
       fy="2278.0271"
       fx="188.94781"
       cy="2278.0271"
       cx="188.94781"
       id="radialGradient2463"
       xlink:href="#linearGradient841"
       inkscape:collect="always" />
    <radialGradient
       gradientUnits="userSpaceOnUse"
       gradientTransform="matrix(1.070251,0,0,0.93436,22.073902,-2098.0771)"
       r="18.493774"
       fy="2274.3147"
       fx="212.60384"
       cy="2274.3147"
       cx="212.60384"
       id="radialGradient2462"
       xlink:href="#linearGradient841"
       inkscape:collect="always" />
    <radialGradient
       gradientUnits="userSpaceOnUse"
       gradientTransform="matrix(1.045701,0,0,0.956296,2.020692,-2108.7331)"
       r="12.484145"
       fy="2233.2886"
       fx="221.81415"
       cy="2233.2886"
       cx="221.81415"
       id="radialGradient2461"
       xlink:href="#linearGradient841"
       inkscape:collect="always" />
    <radialGradient
       gradientUnits="userSpaceOnUse"
       gradientTransform="matrix(1.040873,0,0,0.960732,-9.816578,-2121.2581)"
       r="12.167087"
       fy="2236.0139"
       fx="225.28719"
       cy="2236.0139"
       cx="225.28719"
       id="radialGradient2460"
       xlink:href="#linearGradient841"
       inkscape:collect="always" />
    <radialGradient
       gradientUnits="userSpaceOnUse"
       gradientTransform="matrix(1.065969,0,0,0.938114,23.548122,-2129.6921)"
       r="7.2748404"
       fy="2298.9153"
       fx="225.83769"
       cy="2298.9153"
       cx="225.83769"
       id="radialGradient2459"
       xlink:href="#linearGradient841"
       inkscape:collect="always" />
    <radialGradient
       gradientUnits="userSpaceOnUse"
       gradientTransform="matrix(1.048503,0,0,0.953741,5.842322,-2135.0491)"
       r="7.9932241"
       fy="2266.865"
       fx="238.59247"
       cy="2266.865"
       cx="238.59247"
       id="radialGradient2458"
       xlink:href="#linearGradient841"
       inkscape:collect="always" />
    <radialGradient
       gradientUnits="userSpaceOnUse"
       gradientTransform="matrix(1.034074,0,0,0.967049,-15.384588,-2138.1911)"
       r="5.5509334"
       fy="2238.9172"
       fx="251.28577"
       cy="2238.9172"
       cx="251.28577"
       id="radialGradient2457"
       xlink:href="#linearGradient841"
       inkscape:collect="always" />
    <linearGradient
       id="linearGradient841">
      <stop
         id="stop842"
         offset="0.00000000"
         style="stop-color:#0082ab;stop-opacity:1;" />
      <stop
         id="stop1842"
         offset="0.34999999"
         style="stop-color:#0082ab;stop-opacity:0.5;" />
      <stop
         id="stop1843"
         offset="0.63000000"
         style="stop-color:#0082ab;stop-opacity:0.22;" />
      <stop
         id="stop843"
         offset="1.00000000"
         style="stop-color:#0082ab;stop-opacity:0;" />
    </linearGradient>
  </defs>
  <sodipodi:namedview
     inkscape:window-maximized="1"
     inkscape:window-y="27"
     inkscape:window-x="54"
     inkscape:window-height="1016"
     inkscape:window-width="1866"
     inkscape:guide-bbox="true"
     showguides="true"
     units="px"
     showgrid="false"
     inkscape:document-rotation="0"
     inkscape:current-layer="svg2928"
     inkscape:document-units="px"
     inkscape:cy="28.5"
     inkscape:cx="150"
     inkscape:zoom="1.4"
     inkscape:pageshadow="2"
     inkscape:pageopacity="0.0"
     borderopacity="1.0"
     bordercolor="#666666"
     pagecolor="#ffffff"
     id="base"
     inkscape:lockguides="true" />
  <metadata
     id="metadata4">
    <rdf:RDF>
      <cc:Work
         rdf:about="">
        <dc:format>image/svg+xml</dc:format>
        <dc:type
           rdf:resource="http://purl.org/dc/dcmitype/StillImage" />
        <dc:title />
      </cc:Work>
    </rdf:RDF>
  </metadata>
  <g
     id="layer1"
     inkscape:groupmode="layer"
     inkscape:label="Layer 1">
    <path
       style="font-size:12px;fill:url(#radialGradient1670);fill-opacity:0.75;fill-rule:evenodd;stroke:none"
       d="m 208.92425,44.557154 20.92737,0.3454 20.92738,0.3453 -10.16462,-18.2963 L 230.44977,8.6552542 219.68701,26.606154 Z"
       id="polygon1671"
       inkscape:connector-curvature="0" />
    <path
       style="font-size:12px;fill:url(#radialGradient1669);fill-opacity:0.75;fill-rule:evenodd;stroke:none"
       d="m 224.07005,43.677554 -10.1366,-17.0026 -10.13659,-17.0025998 -9.65639,17.2798998 -9.65639,17.2798 19.79299,-0.2772 z"
       id="polygon1672"
       inkscape:connector-curvature="0" />
    <path
       style="font-size:12px;fill:url(#radialGradient1668);fill-opacity:0.75;fill-rule:evenodd;stroke:none"
       d="m 232.97302,38.889954 -5.43123,-11.9385 -5.43122,-11.9385 -7.62346,10.6728 -7.62347,10.6729 13.05469,1.2656 z"
       id="polygon1673"
       inkscape:connector-curvature="0" />
    <path
       style="font-size:12px;fill:url(#radialGradient1667);fill-opacity:0.75;fill-rule:evenodd;stroke:none"
       d="m 241.87604,35.754654 -7.58208,-10.246 -7.58209,-10.2461 -5.0823,11.6893 -5.08231,11.6893 12.66439,-1.4432 z"
       id="polygon1674"
       inkscape:connector-curvature="0" />
    <path
       style="font-size:12px;fill:url(#radialGradient1666);fill-opacity:0.75;fill-rule:evenodd;stroke:none"
       d="m 197.36101,33.776154 -3.68891,-6.8247 -3.68891,-6.8246 -4.06584,6.607 -4.06585,6.607 7.75475,0.2176 z"
       id="polygon1675"
       inkscape:connector-curvature="0" />
    <path
       style="font-size:12px;fill:url(#radialGradient1665);fill-opacity:0.75;fill-rule:evenodd;stroke:none"
       d="m 206.264,33.114054 -4.82331,-6.8928 -4.8233,-6.8927 -3.55762,7.6235 -3.55761,7.6234 8.38092,-0.7307 z"
       id="polygon1676"
       inkscape:connector-curvature="0" />
    <path
       style="font-size:12px;fill:url(#radialGradient1664);fill-opacity:0.75;fill-rule:evenodd;stroke:none"
       d="m 215.16706,32.319454 -2.18246,-5.3681 -2.18246,-5.368 -3.55761,4.5741 -3.55762,4.5741 5.74008,0.7939 z"
       id="polygon1677"
       inkscape:connector-curvature="0" />
    <path
       id="path1622"
       d="M 48.478023,5.2707387 102.07965,19.633238"
       style="fill:none;fill-opacity:0.75;fill-rule:evenodd;stroke:#000000;stroke-width:1pt;stroke-linecap:butt;stroke-linejoin:miter;stroke-opacity:1"
       inkscape:connector-curvature="0" />
    <path
       id="path1623"
       d="M 45.934984,9.5989387 99.53661,23.961438"
       style="fill:none;fill-opacity:0.75;fill-rule:evenodd;stroke:#000000;stroke-width:1pt;stroke-linecap:butt;stroke-linejoin:miter;stroke-opacity:1"
       inkscape:connector-curvature="0" />
    <path
       id="path1624"
       d="m 43.391944,13.927238 53.601626,14.3625"
       style="fill:none;fill-opacity:0.75;fill-rule:evenodd;stroke:#000000;stroke-width:1pt;stroke-linecap:butt;stroke-linejoin:miter;stroke-opacity:1"
       inkscape:connector-curvature="0" />
    <path
       id="path1625"
       d="m 40.848905,18.255438 53.601621,14.3625"
       style="fill:none;fill-opacity:0.75;fill-rule:evenodd;stroke:#000000;stroke-width:1pt;stroke-linecap:butt;stroke-linejoin:miter;stroke-opacity:1"
       inkscape:connector-curvature="0" />
    <path
       id="path1626"
       d="m 38.305866,22.583638 53.601621,14.3625"
       style="fill:none;fill-opacity:0.75;fill-rule:evenodd;stroke:#000000;stroke-width:1pt;stroke-linecap:butt;stroke-linejoin:miter;stroke-opacity:1"
       inkscape:connector-curvature="0" />
    <path
       id="path1627"
       d="M 35.762826,26.911938 89.364447,41.274441"
       style="fill:none;fill-opacity:0.75;fill-rule:evenodd;stroke:#000000;stroke-width:1pt;stroke-linecap:butt;stroke-linejoin:miter;stroke-opacity:1"
       inkscape:connector-curvature="0" />
    <path
       id="path1628"
       d="M 33.219787,31.240138 86.821408,45.602641"
       style="fill:none;fill-opacity:0.75;fill-rule:evenodd;stroke:#000000;stroke-width:1pt;stroke-linecap:butt;stroke-linejoin:miter;stroke-opacity:1"
       inkscape:connector-curvature="0" />
    <path
       id="path1629"
       d="M 30.676748,35.568338 84.278369,49.930841"
       style="fill:none;fill-opacity:0.75;fill-rule:evenodd;stroke:#000000;stroke-width:1pt;stroke-linecap:butt;stroke-linejoin:miter;stroke-opacity:1"
       inkscape:connector-curvature="0" />
    <path
       id="path1630"
       d="m 28.133706,39.896641 53.601621,14.3625"
       style="fill:none;fill-opacity:0.75;fill-rule:evenodd;stroke:#000000;stroke-width:1pt;stroke-linecap:butt;stroke-linejoin:miter;stroke-opacity:1"
       inkscape:connector-curvature="0" />
    <path
       transform="matrix(0,0.614095,-0.614095,0,1442.7218,-30.971356)"
       d="m 131.4554,2120.6279 c 0.41193,0.206 -0.0744,0.6569 -0.34233,0.6847 -0.72607,0.075 -1.12338,-0.7544 -1.027,-1.3693 0.1724,-1.0999 1.39554,-1.6298 2.39632,-1.3694 1.4687,0.3822 2.14717,2.044 1.71166,3.4234 -0.58046,1.8385 -2.69469,2.6691 -4.45031,2.0539 -2.20927,-0.774 -3.19333,-3.3465 -2.39632,-5.4773 0.96528,-2.5806 3.99906,-3.7188 6.5043,-2.7386 2.95234,1.1551 4.24521,4.6519 3.08099,7.5313 -1.34415,3.3243 -5.30506,4.7721 -8.5583,3.4233 -3.69653,-1.5326 -5.29939,-5.9584 -3.76565,-9.5853 1.72064,-4.0689 6.61179,-5.8269 10.61229,-4.108 4.44131,1.9084 6.35473,7.2654 4.45031,11.6393"
       sodipodi:t0="0"
       sodipodi:argument="-18.385908"
       sodipodi:radius="9.1857243"
       sodipodi:revolution="3"
       sodipodi:expansion="1"
       sodipodi:cy="2120.6279"
       sodipodi:cx="131.4554"
       id="path1641"
       style="font-size:12px;fill:none;fill-opacity:0.75;fill-rule:evenodd;stroke:#000000;stroke-width:1pt"
       sodipodi:type="spiral" />
    <path
       transform="matrix(0,0.614095,-0.614095,0,1458.9388,-40.212356)"
       d="m 143.19247,2128.844 c 0.55906,0.2942 -0.12081,0.8988 -0.48904,0.9292 -0.99789,0.082 -1.51907,-1.0668 -1.36933,-1.9073 0.26786,-1.5035 1.96044,-2.1952 3.32551,-1.8095 2.0033,0.5661 2.88629,2.8645 2.24961,4.7438 -0.84859,2.5048 -3.77184,3.5835 -6.16197,2.6897 -3.00774,-1.1247 -4.28381,-4.6808 -3.12989,-7.5802 1.39754,-3.5115 5.59068,-4.9859 8.99843,-3.57 4.01592,1.6685 5.68909,6.5011 4.01017,10.4167 -1.93838,4.5206 -7.41185,6.393 -11.83489,4.4503 -5.02575,-2.2075 -7.09751,-8.3229 -4.89046,-13.2532 2.47598,-5.531 9.23408,-7.8023 14.67136,-5.3306 6.03641,2.7442 8.50748,10.1455 5.77074,16.0896"
       sodipodi:t0="0"
       sodipodi:argument="-18.365078"
       sodipodi:radius="12.600299"
       sodipodi:revolution="3"
       sodipodi:expansion="1"
       sodipodi:cy="2128.844"
       sodipodi:cx="143.19247"
       id="path1642"
       style="font-size:12px;fill:none;fill-opacity:0.75;fill-rule:evenodd;stroke:#000000;stroke-width:1pt"
       sodipodi:type="spiral" />
    <path
       transform="matrix(0,0.614095,-0.614095,0,1442.7218,-54.588356)"
       d="m 154.34271,2141.7546 c 1.11811,0.5885 -0.24162,1.7976 -0.97809,1.8584 -1.99578,0.1649 -3.03814,-2.1335 -2.73865,-3.8145 0.53572,-3.007 3.92088,-4.3904 6.65101,-3.619 4.00659,1.1321 5.77258,5.7289 4.49922,9.4875 -1.69718,5.0097 -7.54368,7.167 -12.32394,5.3795 -6.01547,-2.2494 -8.56761,-9.3617 -6.25978,-15.1604 2.79509,-7.0231 11.18137,-9.9718 17.99687,-7.1401 8.03182,3.3371 11.37818,13.0022 8.02034,20.8334 -3.87676,9.0413 -14.82371,12.786 -23.66979,8.9006 -10.05149,-4.4149 -14.19501,-16.6458 -9.78091,-26.5063 4.95195,-11.062 18.46816,-15.6047 29.34272,-10.6612 12.07282,5.4883 17.01496,20.2909 11.54147,32.1792"
       sodipodi:t0="0"
       sodipodi:argument="-18.365078"
       sodipodi:radius="25.200598"
       sodipodi:revolution="3"
       sodipodi:expansion="1"
       sodipodi:cy="2141.7546"
       sodipodi:cx="154.34271"
       id="path1643"
       style="font-size:12px;fill:none;fill-opacity:0.75;fill-rule:evenodd;stroke:#000000;stroke-width:1pt"
       sodipodi:type="spiral" />
    <path
       transform="matrix(0,0.614095,-0.614095,0,1442.7218,-65.476356)"
       d="m 177.23004,2161.1208 c 0.94157,0.2943 0.0679,1.4144 -0.48904,1.565 -1.50931,0.408 -2.6338,-1.21 -2.64085,-2.543 -0.0126,-2.3846 2.3918,-3.9242 4.59703,-3.7168 3.23626,0.3044 5.24049,3.5853 4.79264,6.651 -0.59691,4.0862 -4.78223,6.5672 -8.70501,5.8686 -4.93641,-0.8792 -7.899,-5.9808 -6.94444,-10.759 1.1561,-5.7871 7.18013,-9.2339 12.81299,-8.0204 6.63813,1.4301 10.57054,8.3801 9.09624,14.867 -1.70213,7.4895 -9.58025,11.9085 -16.92097,10.1722 -8.34098,-1.973 -13.2473,-10.7808 -11.24804,-18.975 2.24287,-9.1927 11.9814,-14.5868 21.02895,-12.3239 10.0445,2.5121 15.92668,13.1822 13.39984,23.0829"
       sodipodi:t0="0"
       sodipodi:argument="-18.546671"
       sodipodi:radius="19.674946"
       sodipodi:revolution="3"
       sodipodi:expansion="1"
       sodipodi:cy="2161.1208"
       sodipodi:cx="177.23004"
       id="path1644"
       style="font-size:12px;fill:none;fill-opacity:0.75;fill-rule:evenodd;stroke:#000000;stroke-width:1pt"
       sodipodi:type="spiral" />
    <path
       transform="matrix(0,0.153524,-0.153524,0,491.99172,31.385644)"
       d="m 143.19247,2128.844 c 0.55906,0.2942 -0.12081,0.8988 -0.48904,0.9292 -0.99789,0.082 -1.51907,-1.0668 -1.36933,-1.9073 0.26786,-1.5035 1.96044,-2.1952 3.32551,-1.8095 2.0033,0.5661 2.88629,2.8645 2.24961,4.7438 -0.84859,2.5048 -3.77184,3.5835 -6.16197,2.6897 -3.00774,-1.1247 -4.28381,-4.6808 -3.12989,-7.5802 1.39754,-3.5115 5.59068,-4.9859 8.99843,-3.57 4.01592,1.6685 5.68909,6.5011 4.01017,10.4167 -1.93838,4.5206 -7.41185,6.393 -11.83489,4.4503 -5.02575,-2.2075 -7.09751,-8.3229 -4.89046,-13.2532 2.47598,-5.531 9.23408,-7.8023 14.67136,-5.3306 6.03641,2.7442 8.50748,10.1455 5.77074,16.0896"
       sodipodi:t0="0"
       sodipodi:argument="-18.365078"
       sodipodi:radius="12.600299"
       sodipodi:revolution="3"
       sodipodi:expansion="1"
       sodipodi:cy="2128.844"
       sodipodi:cx="143.19247"
       id="path1645"
       style="font-size:12px;fill:none;fill-opacity:0.75;fill-rule:evenodd;stroke:#000000;stroke-width:1pt"
       sodipodi:type="spiral" />
    <path
       transform="matrix(0,0.307048,-0.307048,0,825.18742,7.5196412)"
       d="m 143.19247,2128.844 c 0.55906,0.2942 -0.12081,0.8988 -0.48904,0.9292 -0.99789,0.082 -1.51907,-1.0668 -1.36933,-1.9073 0.26786,-1.5035 1.96044,-2.1952 3.32551,-1.8095 2.0033,0.5661 2.88629,2.8645 2.24961,4.7438 -0.84859,2.5048 -3.77184,3.5835 -6.16197,2.6897 -3.00774,-1.1247 -4.28381,-4.6808 -3.12989,-7.5802 1.39754,-3.5115 5.59068,-4.9859 8.99843,-3.57 4.01592,1.6685 5.68909,6.5011 4.01017,10.4167 -1.93838,4.5206 -7.41185,6.393 -11.83489,4.4503 -5.02575,-2.2075 -7.09751,-8.3229 -4.89046,-13.2532 2.47598,-5.531 9.23408,-7.8023 14.67136,-5.3306 6.03641,2.7442 8.50748,10.1455 5.77074,16.0896"
       sodipodi:t0="0"
       sodipodi:argument="-18.365078"
       sodipodi:radius="12.600299"
       sodipodi:revolution="3"
       sodipodi:expansion="1"
       sodipodi:cy="2128.844"
       sodipodi:cx="143.19247"
       id="path1646"
       style="font-size:12px;fill:none;fill-opacity:0.75;fill-rule:evenodd;stroke:#000000;stroke-width:1pt"
       sodipodi:type="spiral" />
    <path
       transform="matrix(0,1.228191,-1.228191,0,2772.1378,-135.67545)"
       d="m 143.19247,2128.844 c 0.55906,0.2942 -0.12081,0.8988 -0.48904,0.9292 -0.99789,0.082 -1.51907,-1.0668 -1.36933,-1.9073 0.26786,-1.5035 1.96044,-2.1952 3.32551,-1.8095 2.0033,0.5661 2.88629,2.8645 2.24961,4.7438 -0.84859,2.5048 -3.77184,3.5835 -6.16197,2.6897 -3.00774,-1.1247 -4.28381,-4.6808 -3.12989,-7.5802 1.39754,-3.5115 5.59068,-4.9859 8.99843,-3.57 4.01592,1.6685 5.68909,6.5011 4.01017,10.4167 -1.93838,4.5206 -7.41185,6.393 -11.83489,4.4503 -5.02575,-2.2075 -7.09751,-8.3229 -4.89046,-13.2532 2.47598,-5.531 9.23408,-7.8023 14.67136,-5.3306 6.03641,2.7442 8.50748,10.1455 5.77074,16.0896"
       sodipodi:t0="0"
       sodipodi:argument="-18.365078"
       sodipodi:radius="12.600299"
       sodipodi:revolution="3"
       sodipodi:expansion="1"
       sodipodi:cy="2128.844"
       sodipodi:cx="143.19247"
       id="path1647"
       style="font-size:12px;fill:none;fill-opacity:0.75;fill-rule:evenodd;stroke:#000000;stroke-width:1pt"
       sodipodi:type="spiral" />
    <path
       transform="matrix(0,2.456381,-2.456381,0,5365.8988,-326.60045)"
       d="m 143.19247,2128.844 c 0.55906,0.2942 -0.12081,0.8988 -0.48904,0.9292 -0.99789,0.082 -1.51907,-1.0668 -1.36933,-1.9073 0.26786,-1.5035 1.96044,-2.1952 3.32551,-1.8095 2.0033,0.5661 2.88629,2.8645 2.24961,4.7438 -0.84859,2.5048 -3.77184,3.5835 -6.16197,2.6897 -3.00774,-1.1247 -4.28381,-4.6808 -3.12989,-7.5802 1.39754,-3.5115 5.59068,-4.9859 8.99843,-3.57 4.01592,1.6685 5.68909,6.5011 4.01017,10.4167 -1.93838,4.5206 -7.41185,6.393 -11.83489,4.4503 -5.02575,-2.2075 -7.09751,-8.3229 -4.89046,-13.2532 2.47598,-5.531 9.23408,-7.8023 14.67136,-5.3306 6.03641,2.7442 8.50748,10.1455 5.77074,16.0896"
       sodipodi:t0="0"
       sodipodi:argument="-18.365078"
       sodipodi:radius="12.600299"
       sodipodi:revolution="3"
       sodipodi:expansion="1"
       sodipodi:cy="2128.844"
       sodipodi:cx="143.19247"
       id="path1648"
       style="font-size:12px;fill:none;fill-opacity:0.75;fill-rule:evenodd;stroke:#000000;stroke-width:0.125"
       sodipodi:type="spiral" />
    <path
       style="font-size:12px;fill:url(#radialGradient2463);fill-opacity:0.75;fill-rule:evenodd;stroke:none"
       d="m 244.96618,44.557154 -20.92737,0.3454 -20.92738,0.3453 10.16462,-18.2963 10.16461,-18.2962998 10.76276,17.9508998 z"
       id="polygon1649"
       inkscape:connector-curvature="0" />
    <path
       style="font-size:12px;fill:url(#radialGradient2462);fill-opacity:0.75;fill-rule:evenodd;stroke:none"
       d="m 229.82037,43.677554 10.1366,-17.0026 10.13659,-17.0025998 9.65639,17.2798998 9.65639,17.2798 -19.79299,-0.2772 z"
       id="polygon1650"
       inkscape:connector-curvature="0" />
    <path
       style="font-size:12px;fill:url(#radialGradient2461);fill-opacity:0.75;fill-rule:evenodd;stroke:none"
       d="m 220.91739,38.889954 5.43123,-11.9385 5.43122,-11.9385 7.62346,10.6728 7.62347,10.6729 -13.05469,1.2656 z"
       id="polygon1651"
       inkscape:connector-curvature="0" />
    <path
       style="font-size:12px;fill:url(#radialGradient2460);fill-opacity:0.75;fill-rule:evenodd;stroke:none"
       d="m 212.0144,35.754654 7.58208,-10.246 7.58209,-10.2461 5.0823,11.6893 5.08231,11.6893 -12.66439,-1.4432 z"
       id="polygon1652"
       inkscape:connector-curvature="0" />
    <path
       style="font-size:12px;fill:url(#radialGradient2459);fill-opacity:0.75;fill-rule:evenodd;stroke:none"
       d="m 256.52933,33.776154 3.68891,-6.8247 3.68891,-6.8246 4.06584,6.607 4.06585,6.607 -7.75475,0.2176 z"
       id="polygon1653"
       inkscape:connector-curvature="0" />
    <path
       style="font-size:12px;fill:url(#radialGradient2458);fill-opacity:0.75;fill-rule:evenodd;stroke:none"
       d="m 247.62634,33.114054 4.82331,-6.8928 4.8233,-6.8927 3.55762,7.6235 3.55761,7.6234 -8.38092,-0.7307 z"
       id="polygon1654"
       inkscape:connector-curvature="0" />
    <path
       style="font-size:12px;fill:url(#radialGradient2457);fill-opacity:0.75;fill-rule:evenodd;stroke:none"
       d="m 238.72337,32.319454 2.18246,-5.3681 2.18246,-5.368 3.55761,4.5741 3.55762,4.5741 -5.74008,0.7939 z"
       id="polygon1655"
       inkscape:connector-curvature="0" />
    <path
       transform="matrix(0,0.349663,-0.349663,0,872.35462,1.0356412)"
       d="m 143.19247,2128.844 c 0.55906,0.2942 -0.12081,0.8988 -0.48904,0.9292 -0.99789,0.082 -1.51907,-1.0668 -1.36933,-1.9073 0.26786,-1.5035 1.96044,-2.1952 3.32551,-1.8095 2.0033,0.5661 2.88629,2.8645 2.24961,4.7438 -0.84859,2.5048 -3.77184,3.5835 -6.16197,2.6897 -3.00774,-1.1247 -4.28381,-4.6808 -3.12989,-7.5802 1.39754,-3.5115 5.59068,-4.9859 8.99843,-3.57 4.01592,1.6685 5.68909,6.5011 4.01017,10.4167 -1.93838,4.5206 -7.41185,6.393 -11.83489,4.4503 -5.02575,-2.2075 -7.09751,-8.3229 -4.89046,-13.2532 2.47598,-5.531 9.23408,-7.8023 14.67136,-5.3306 6.03641,2.7442 8.50748,10.1455 5.77074,16.0896"
       sodipodi:t0="0"
       sodipodi:argument="-18.365078"
       sodipodi:radius="12.600299"
       sodipodi:revolution="3"
       sodipodi:expansion="1"
       sodipodi:cy="2128.844"
       sodipodi:cx="143.19247"
       id="path1678"
       style="font-size:12px;fill:none;fill-opacity:0.75;fill-rule:evenodd;stroke:#000000;stroke-width:1pt"
       sodipodi:type="spiral" />
    <path
       id="path1679"
       d="m 193.57731,52.070641 c -0.0437,0.9606 -0.0841,2.0544 -1.10516,2.797"
       style="font-size:12px;fill:none;fill-opacity:0.75;fill-rule:evenodd;stroke:#000000;stroke-width:0.362915pt"
       inkscape:connector-curvature="0" />
    <path
       id="path1680"
       d="m 200.67458,52.182541 c 0,0.7432 -0.45969,2.1149 -0.36838,3.0207"
       style="font-size:12px;fill:none;fill-opacity:0.75;fill-rule:evenodd;stroke:#000000;stroke-width:0.362915pt"
       inkscape:connector-curvature="0" />
    <path
       id="path1681"
       d="m 207.02307,52.294341 c 0.19998,0.6951 0.0821,1.788 1.84195,2.5733"
       style="font-size:12px;fill:none;fill-opacity:0.75;fill-rule:evenodd;stroke:#000000;stroke-width:0.362915pt"
       inkscape:connector-curvature="0" />
    <path
       id="path1682"
       d="m 216.05488,51.846841 c -0.21579,0.6669 -1.86088,2.5621 -1.10517,3.2446"
       style="font-size:12px;fill:none;fill-opacity:0.75;fill-rule:evenodd;stroke:#000000;stroke-width:0.362915pt"
       inkscape:connector-curvature="0" />
    <path
       id="path1683"
       d="m 223.19743,52.630041 c -0.28049,0.399 -1.35177,1.8021 0,2.3495"
       style="font-size:12px;fill:none;fill-opacity:0.75;fill-rule:evenodd;stroke:#000000;stroke-width:0.362915pt"
       inkscape:connector-curvature="0" />
    <path
       id="path1684"
       d="m 229.40263,51.846841 c 0.0915,0.9266 -0.48104,1.8809 1.84195,2.9089"
       style="font-size:12px;fill:none;fill-opacity:0.75;fill-rule:evenodd;stroke:#000000;stroke-width:0.362915pt"
       inkscape:connector-curvature="0" />
    <path
       id="path1685"
       d="m 238.51735,52.294341 c 0.0798,0.5698 -0.99104,1.5626 -1.47355,2.4614"
       style="font-size:12px;fill:none;fill-opacity:0.75;fill-rule:evenodd;stroke:#000000;stroke-width:0.362915pt"
       inkscape:connector-curvature="0" />
    <path
       id="path1686"
       d="m 243.76878,52.182541 c 0.0271,0.4366 0.19539,1.7227 2.94711,2.3495"
       style="font-size:12px;fill:none;fill-opacity:0.75;fill-rule:evenodd;stroke:#000000;stroke-width:0.362915pt"
       inkscape:connector-curvature="0" />
    <path
       id="path1687"
       d="m 252.34376,52.406241 c 0,0.1579 -0.21227,1.6131 0.73678,2.2376"
       style="font-size:12px;fill:none;fill-opacity:0.75;fill-rule:evenodd;stroke:#000000;stroke-width:0.362915pt"
       inkscape:connector-curvature="0" />
    <path
       id="path1688"
       d="m 256.84617,52.182541 c 1.05485,1.2333 1.13045,2.6855 6.631,3.5801"
       style="font-size:12px;fill:none;fill-opacity:0.75;fill-rule:evenodd;stroke:#000000;stroke-width:0.362915pt"
       inkscape:connector-curvature="0" />
    <path
       id="path1689"
       d="m 267.25507,52.853741 c 0,0.8403 -0.10579,1.6705 0.73678,2.4614"
       style="font-size:12px;fill:none;fill-opacity:0.75;fill-rule:evenodd;stroke:#000000;stroke-width:0.362915pt"
       inkscape:connector-curvature="0" />
  </g>
</svg>
